{
  "data": [
    {
      "id": 22,
      "attributes": {
        "slug": "a-way-out-2018",
        "title": "A Way Out",
        "subtitle": "A Riveting Co-op Adventure That Pushes Boundaries",
        "publishedAt": "2023-05-23T11:00:00.000Z",
        "image": {
          "data": {
            "id": 22,
            "attributes": {
              "url": "/uploads/a_way_out_2018_8efe22cb7f.jpg"
            }
          }
        }
      }
    },
    {
      "id": 10,
      "attributes": {
        "slug": "warhammer-vermintide-2",
        "title": "Warhammer: Vermintide 2",
        "subtitle": "A Stunning Co-op Action Experience",
        "publishedAt": "2023-05-22T11:00:00.000Z",
        "image": {
          "data": {
            "id": 10,
            "attributes": {
              "url": "/uploads/warhammer_vermintide_2_0634bcc7ee.jpg"
            }
          }
        }
      }
    },
    {
      "id": 24,
      "attributes": {
        "slug": "celeste",
        "title": "Celeste",
        "subtitle": "A Masterpiece of Platforming and Emotional Resilience",
        "publishedAt": "2023-05-21T11:00:00.000Z",
        "image": {
          "data": {
            "id": 24,
            "attributes": {
              "url": "/uploads/celeste_3c79fbc678.jpg"
            }
          }
        }
      }
    },
    {
      "id": 17,
      "attributes": {
        "slug": "subnautica",
        "title": "Subnautica",
        "subtitle": "An Oceanic Masterpiece That Plunges Players into an Immersive Underwater World",
        "publishedAt": "2023-05-20T11:00:00.000Z",
        "image": {
          "data": {
            "id": 17,
            "attributes": {
              "url": "/uploads/subnautica_049e8332de.jpg"
            }
          }
        }
      }
    },
    {
      "id": 11,
      "attributes": {
        "slug": "cuphead",
        "title": "Cuphead",
        "subtitle": "A Challenging and Visually Stunning Ode to Classic Animation",
        "publishedAt": "2023-05-19T11:00:00.000Z",
        "image": {
          "data": {
            "id": 11,
            "attributes": {
              "url": "/uploads/cuphead_14fced8b9a.jpg"
            }
          }
        }
      }
    },
    {
      "id": 3,
      "attributes": {
        "slug": "hellblade-senuas-sacrifice",
        "title": "Hellblade: Senua's Sacrifice",
        "subtitle": "A Hauntingly Captivating Journey",
        "publishedAt": "2023-05-18T11:00:00.000Z",
        "image": {
          "data": {
            "id": 3,
            "attributes": {
              "url": "/uploads/hellblade_senuas_sacrifice_56b4c7ac75.jpg"
            }
          }
        }
      }
    }
  ],
  "meta": {
    "pagination": {
      "page": 2,
      "pageSize": 6,
      "pageCount": 5,
      "total": 26
    }
  }
}